…
## Exercise 1: Special Data Types

I will use the following plot from Milestone 2 to complete tasks 1 & 2.
The plot below examines the relationship between the year an apartment
building was built and the number of accessible units in that building.
In order to make this graph more applicable for this exercise, I have
grouped the “year built” variable into “century built” and transformed
it into a factor.

``` r
apt_buildings_1 <- apt_buildings[c('year_built', 'no_barrier_free_accessible_units')] #new dataframe with only the variables I need for this exercise
apt_buildings_1
```

    ## # A tibble: 3,455 x 2
    ##    year_built no_barrier_free_accessible_units
    ##         <dbl>                            <dbl>
    ##  1       1967                                2
    ##  2       1970                                0
    ##  3       1927                                0
    ##  4       1959                               42
    ##  5       1943                                0
    ##  6       1952                               NA
    ##  7       1959                               14
    ##  8       1971                                0
    ##  9       1969                                0
    ## 10       1972                                1
    ## # ... with 3,445 more rows
…
``` r
dir.create(here::here("C:\\Users\\tiana\\OneDrive\\Desktop\\output"))
```

### 3.1 (5 points)

``` r
# Reformatting my summary table from Milestone 2, exercise 1.2
apt_buildings_na <- filter(apt_buildings, !is.na(year_built))
apt_buildings_na <- filter(apt_buildings_na, !is.na(no_barrier_free_accessible_units))
apt_buildings_na
```

    ## # A tibble: 3,300 x 37
    ##       id air_conditioning amenities    balconies barrier_free_acc~ bike_parking 
    ##    <dbl> <chr>            <chr>        <chr>     <chr>             <chr>        
    ##  1 10359 NONE             Outdoor rec~ YES       YES               0 indoor par~
    ##  2 10360 NONE             Outdoor pool YES       NO                0 indoor par~
    ##  3 10361 NONE             <NA>         YES       NO                Not Available
    ##  4 10362 NONE             <NA>         YES       YES               Not Available
    ##  5 10363 NONE             <NA>         NO        NO                12 indoor pa~
    ##  6 10365 NONE             <NA>         NO        YES               Not Available
    ##  7 10366 CENTRAL AIR      Indoor pool~ YES       NO                Not Available
    ##  8 10367 NONE             <NA>         YES       YES               0 indoor par~
    ##  9 10368 NONE             Indoor recr~ YES       YES               Not Available
    ## 10 10369 NONE             <NA>         NO        YES               Not Available
    ## # ... with 3,290 more rows, and 31 more variables: exterior_fire_escape <chr>,
    ## #   fire_alarm <chr>, garbage_chutes <chr>, heating_type <chr>, intercom <chr>,
    ## #   laundry_room <chr>, locker_or_storage_room <chr>, no_of_elevators <dbl>,
    ## #   parking_type <chr>, pets_allowed <chr>, prop_management_company_name <chr>,
    ## #   property_type <chr>, rsn <dbl>, separate_gas_meters <chr>,
    ## #   separate_hydro_meters <chr>, separate_water_meters <chr>,
    ## #   site_address <chr>, sprinkler_system <chr>, visitor_parking <chr>, ...
…
